start
	int n , i
	double sum
	double sum2
	double su2m
	array of double x
	i = 0
	sum = 0
	read n
	while i < n do
		read x [ i ]
		i = i + 1
	endwhile
	i = 0
	while i < n do
		sum = sum + x [ i ]
		i = i + 1
	endwhile
	write sum
end